^C:\USERS\RAHIT\SKYDRIVE\PROGRAMMING CONTEST'S PROJECT (VB2012)\RCRICKET\RCRICKET\EVENTS.CPP
/c /ZI /nologo /W3 /WX- /Od /Oy- /D WIN32 /D _DEBUG /D _WINDOWS /D _UNICODE /D UNICODE /Gm /EHsc /RTC1 /MDd /GS /fp:precise /Zc:wchar_t /Zc:forScope /Fo"DEBUG\\" /Fd"DEBUG\VC110.PDB" /Gd /TP /analyze- C:\USERS\RAHIT\SKYDRIVE\PROGRAMMING CONTEST'S PROJECT (VB2012)\RCRICKET\RCRICKET\EVENTS.CPP
^C:\USERS\RAHIT\SKYDRIVE\PROGRAMMING CONTEST'S PROJECT (VB2012)\RCRICKET\RCRICKET\GAME.CPP
/c /ZI /nologo /W3 /WX- /Od /Oy- /D WIN32 /D _DEBUG /D _WINDOWS /D _UNICODE /D UNICODE /Gm /EHsc /RTC1 /MDd /GS /fp:precise /Zc:wchar_t /Zc:forScope /Fo"DEBUG\\" /Fd"DEBUG\VC110.PDB" /Gd /TP /analyze- C:\USERS\RAHIT\SKYDRIVE\PROGRAMMING CONTEST'S PROJECT (VB2012)\RCRICKET\RCRICKET\GAME.CPP
^C:\USERS\RAHIT\SKYDRIVE\PROGRAMMING CONTEST'S PROJECT (VB2012)\RCRICKET\RCRICKET\GAMEENGINE.CPP
/c /ZI /nologo /W3 /WX- /Od /Oy- /D WIN32 /D _DEBUG /D _WINDOWS /D _UNICODE /D UNICODE /Gm /EHsc /RTC1 /MDd /GS /fp:precise /Zc:wchar_t /Zc:forScope /Fo"DEBUG\\" /Fd"DEBUG\VC110.PDB" /Gd /TP /analyze- C:\USERS\RAHIT\SKYDRIVE\PROGRAMMING CONTEST'S PROJECT (VB2012)\RCRICKET\RCRICKET\GAMEENGINE.CPP
^C:\USERS\RAHIT\SKYDRIVE\PROGRAMMING CONTEST'S PROJECT (VB2012)\RCRICKET\RCRICKET\GRAPHICS.CPP
/c /ZI /nologo /W3 /WX- /Od /Oy- /D WIN32 /D _DEBUG /D _WINDOWS /D _UNICODE /D UNICODE /Gm /EHsc /RTC1 /MDd /GS /fp:precise /Zc:wchar_t /Zc:forScope /Fo"DEBUG\\" /Fd"DEBUG\VC110.PDB" /Gd /TP /analyze- C:\USERS\RAHIT\SKYDRIVE\PROGRAMMING CONTEST'S PROJECT (VB2012)\RCRICKET\RCRICKET\GRAPHICS.CPP
^C:\USERS\RAHIT\SKYDRIVE\PROGRAMMING CONTEST'S PROJECT (VB2012)\RCRICKET\RCRICKET\MAIN.CPP
/c /ZI /nologo /W3 /WX- /Od /Oy- /D WIN32 /D _DEBUG /D _WINDOWS /D _UNICODE /D UNICODE /Gm /EHsc /RTC1 /MDd /GS /fp:precise /Zc:wchar_t /Zc:forScope /Fo"DEBUG\\" /Fd"DEBUG\VC110.PDB" /Gd /TP /analyze- C:\USERS\RAHIT\SKYDRIVE\PROGRAMMING CONTEST'S PROJECT (VB2012)\RCRICKET\RCRICKET\MAIN.CPP
^C:\USERS\RAHIT\SKYDRIVE\PROGRAMMING CONTEST'S PROJECT (VB2012)\RCRICKET\RCRICKET\SCREEN.CPP
/c /ZI /nologo /W3 /WX- /Od /Oy- /D WIN32 /D _DEBUG /D _WINDOWS /D _UNICODE /D UNICODE /Gm /EHsc /RTC1 /MDd /GS /fp:precise /Zc:wchar_t /Zc:forScope /Fo"DEBUG\\" /Fd"DEBUG\VC110.PDB" /Gd /TP /analyze- C:\USERS\RAHIT\SKYDRIVE\PROGRAMMING CONTEST'S PROJECT (VB2012)\RCRICKET\RCRICKET\SCREEN.CPP
^C:\USERS\RAHIT\SKYDRIVE\PROGRAMMING CONTEST'S PROJECT (VB2012)\RCRICKET\RCRICKET\TEAM.CPP
/c /ZI /nologo /W3 /WX- /Od /Oy- /D WIN32 /D _DEBUG /D _WINDOWS /D _UNICODE /D UNICODE /Gm /EHsc /RTC1 /MDd /GS /fp:precise /Zc:wchar_t /Zc:forScope /Fo"DEBUG\\" /Fd"DEBUG\VC110.PDB" /Gd /TP /analyze- C:\USERS\RAHIT\SKYDRIVE\PROGRAMMING CONTEST'S PROJECT (VB2012)\RCRICKET\RCRICKET\TEAM.CPP
