^C:\USERS\RAHIT\SKYDRIVE\PROGRAMMING CONTEST'S PROJECT (VB2012)\RCRICKET\RCRICKET\EVENTS.CPP|C:\USERS\RAHIT\SKYDRIVE\PROGRAMMING CONTEST'S PROJECT (VB2012)\RCRICKET\RCRICKET\GAME.CPP|C:\USERS\RAHIT\SKYDRIVE\PROGRAMMING CONTEST'S PROJECT (VB2012)\RCRICKET\RCRICKET\GAMEENGINE.CPP|C:\USERS\RAHIT\SKYDRIVE\PROGRAMMING CONTEST'S PROJECT (VB2012)\RCRICKET\RCRICKET\GRAPHICS.CPP|C:\USERS\RAHIT\SKYDRIVE\PROGRAMMING CONTEST'S PROJECT (VB2012)\RCRICKET\RCRICKET\MAIN.CPP|C:\USERS\RAHIT\SKYDRIVE\PROGRAMMING CONTEST'S PROJECT (VB2012)\RCRICKET\RCRICKET\SCREEN.CPP|C:\USERS\RAHIT\SKYDRIVE\PROGRAMMING CONTEST'S PROJECT (VB2012)\RCRICKET\RCRICKET\TEAM.CPP
C:\USERS\RAHIT\SKYDRIVE\PROGRAMMING CONTEST'S PROJECT (VB2012)\RCRICKET\RCRICKET\DEBUG\EVENTS.OBJ
C:\USERS\RAHIT\SKYDRIVE\PROGRAMMING CONTEST'S PROJECT (VB2012)\RCRICKET\RCRICKET\DEBUG\GAME.OBJ
C:\USERS\RAHIT\SKYDRIVE\PROGRAMMING CONTEST'S PROJECT (VB2012)\RCRICKET\RCRICKET\DEBUG\GAMEENGINE.OBJ
C:\USERS\RAHIT\SKYDRIVE\PROGRAMMING CONTEST'S PROJECT (VB2012)\RCRICKET\RCRICKET\DEBUG\GRAPHICS.OBJ
C:\USERS\RAHIT\SKYDRIVE\PROGRAMMING CONTEST'S PROJECT (VB2012)\RCRICKET\RCRICKET\DEBUG\MAIN.OBJ
C:\USERS\RAHIT\SKYDRIVE\PROGRAMMING CONTEST'S PROJECT (VB2012)\RCRICKET\RCRICKET\DEBUG\SCREEN.OBJ
C:\USERS\RAHIT\SKYDRIVE\PROGRAMMING CONTEST'S PROJECT (VB2012)\RCRICKET\RCRICKET\DEBUG\TEAM.OBJ
^C:\USERS\RAHIT\SKYDRIVE\PROGRAMMING CONTEST'S PROJECT (VB2012)\RCRICKET\RCRICKET\EVENTS.CPP
C:\USERS\RAHIT\SKYDRIVE\PROGRAMMING CONTEST'S PROJECT (VB2012)\RCRICKET\RCRICKET\DEBUG\VC110.PDB
C:\USERS\RAHIT\SKYDRIVE\PROGRAMMING CONTEST'S PROJECT (VB2012)\RCRICKET\RCRICKET\DEBUG\EVENTS.OBJ
^C:\USERS\RAHIT\SKYDRIVE\PROGRAMMING CONTEST'S PROJECT (VB2012)\RCRICKET\RCRICKET\GAME.CPP
C:\USERS\RAHIT\SKYDRIVE\PROGRAMMING CONTEST'S PROJECT (VB2012)\RCRICKET\RCRICKET\DEBUG\VC110.PDB
C:\USERS\RAHIT\SKYDRIVE\PROGRAMMING CONTEST'S PROJECT (VB2012)\RCRICKET\RCRICKET\DEBUG\GAME.OBJ
^C:\USERS\RAHIT\SKYDRIVE\PROGRAMMING CONTEST'S PROJECT (VB2012)\RCRICKET\RCRICKET\GAMEENGINE.CPP
C:\USERS\RAHIT\SKYDRIVE\PROGRAMMING CONTEST'S PROJECT (VB2012)\RCRICKET\RCRICKET\DEBUG\VC110.PDB
C:\USERS\RAHIT\SKYDRIVE\PROGRAMMING CONTEST'S PROJECT (VB2012)\RCRICKET\RCRICKET\DEBUG\GAMEENGINE.OBJ
^C:\USERS\RAHIT\SKYDRIVE\PROGRAMMING CONTEST'S PROJECT (VB2012)\RCRICKET\RCRICKET\GRAPHICS.CPP
C:\USERS\RAHIT\SKYDRIVE\PROGRAMMING CONTEST'S PROJECT (VB2012)\RCRICKET\RCRICKET\DEBUG\VC110.PDB
^C:\USERS\RAHIT\SKYDRIVE\PROGRAMMING CONTEST'S PROJECT (VB2012)\RCRICKET\RCRICKET\MAIN.CPP
C:\USERS\RAHIT\SKYDRIVE\PROGRAMMING CONTEST'S PROJECT (VB2012)\RCRICKET\RCRICKET\DEBUG\VC110.PDB
C:\USERS\RAHIT\SKYDRIVE\PROGRAMMING CONTEST'S PROJECT (VB2012)\RCRICKET\RCRICKET\DEBUG\MAIN.OBJ
^C:\USERS\RAHIT\SKYDRIVE\PROGRAMMING CONTEST'S PROJECT (VB2012)\RCRICKET\RCRICKET\SCREEN.CPP
C:\USERS\RAHIT\SKYDRIVE\PROGRAMMING CONTEST'S PROJECT (VB2012)\RCRICKET\RCRICKET\DEBUG\VC110.PDB
^C:\USERS\RAHIT\SKYDRIVE\PROGRAMMING CONTEST'S PROJECT (VB2012)\RCRICKET\RCRICKET\TEAM.CPP
C:\USERS\RAHIT\SKYDRIVE\PROGRAMMING CONTEST'S PROJECT (VB2012)\RCRICKET\RCRICKET\DEBUG\VC110.PDB
^C:\USERS\RAHIT\SKYDRIVE\PROGRAMMING CONTEST'S PROJECT (VB2012)\RCRICKET\RCRICKET\GAMEENGINE.CPP|C:\USERS\RAHIT\SKYDRIVE\PROGRAMMING CONTEST'S PROJECT (VB2012)\RCRICKET\RCRICKET\MAIN.CPP
C:\USERS\RAHIT\SKYDRIVE\PROGRAMMING CONTEST'S PROJECT (VB2012)\RCRICKET\RCRICKET\DEBUG\MAIN.OBJ
C:\USERS\RAHIT\SKYDRIVE\PROGRAMMING CONTEST'S PROJECT (VB2012)\RCRICKET\RCRICKET\DEBUG\GAMEENGINE.OBJ
^C:\USERS\RAHIT\SKYDRIVE\PROGRAMMING CONTEST'S PROJECT (VB2012)\RCRICKET\RCRICKET\GAME.CPP|C:\USERS\RAHIT\SKYDRIVE\PROGRAMMING CONTEST'S PROJECT (VB2012)\RCRICKET\RCRICKET\GAMEENGINE.CPP|C:\USERS\RAHIT\SKYDRIVE\PROGRAMMING CONTEST'S PROJECT (VB2012)\RCRICKET\RCRICKET\MAIN.CPP
C:\USERS\RAHIT\SKYDRIVE\PROGRAMMING CONTEST'S PROJECT (VB2012)\RCRICKET\RCRICKET\DEBUG\GAME.OBJ
C:\USERS\RAHIT\SKYDRIVE\PROGRAMMING CONTEST'S PROJECT (VB2012)\RCRICKET\RCRICKET\DEBUG\MAIN.OBJ
C:\USERS\RAHIT\SKYDRIVE\PROGRAMMING CONTEST'S PROJECT (VB2012)\RCRICKET\RCRICKET\DEBUG\GAMEENGINE.OBJ
^C:\USERS\RAHIT\SKYDRIVE\PROGRAMMING CONTEST'S PROJECT (VB2012)\RCRICKET\RCRICKET\GAME.CPP|C:\USERS\RAHIT\SKYDRIVE\PROGRAMMING CONTEST'S PROJECT (VB2012)\RCRICKET\RCRICKET\GAMEENGINE.CPP
C:\USERS\RAHIT\SKYDRIVE\PROGRAMMING CONTEST'S PROJECT (VB2012)\RCRICKET\RCRICKET\DEBUG\GAME.OBJ
C:\USERS\RAHIT\SKYDRIVE\PROGRAMMING CONTEST'S PROJECT (VB2012)\RCRICKET\RCRICKET\DEBUG\GAMEENGINE.OBJ
