^C:\USERS\RAHIT\SKYDRIVE\PROGRAMMING CONTEST'S PROJECT (VB2012)\RCRICKET\RCRICKET\DEBUG\EVENTS.OBJ|C:\USERS\RAHIT\SKYDRIVE\PROGRAMMING CONTEST'S PROJECT (VB2012)\RCRICKET\RCRICKET\DEBUG\GAME.OBJ|C:\USERS\RAHIT\SKYDRIVE\PROGRAMMING CONTEST'S PROJECT (VB2012)\RCRICKET\RCRICKET\DEBUG\GAMEENGINE.OBJ|C:\USERS\RAHIT\SKYDRIVE\PROGRAMMING CONTEST'S PROJECT (VB2012)\RCRICKET\RCRICKET\DEBUG\GRAPHICS.OBJ|C:\USERS\RAHIT\SKYDRIVE\PROGRAMMING CONTEST'S PROJECT (VB2012)\RCRICKET\RCRICKET\DEBUG\MAIN.OBJ|C:\USERS\RAHIT\SKYDRIVE\PROGRAMMING CONTEST'S PROJECT (VB2012)\RCRICKET\RCRICKET\DEBUG\SCREEN.OBJ|C:\USERS\RAHIT\SKYDRIVE\PROGRAMMING CONTEST'S PROJECT (VB2012)\RCRICKET\RCRICKET\DEBUG\TEAM.OBJ
C:\USERS\RAHIT\SKYDRIVE\PROGRAMMING CONTEST'S PROJECT (VB2012)\RCRICKET\DEBUG\RCRICKET.ILK
C:\USERS\RAHIT\SKYDRIVE\PROGRAMMING CONTEST'S PROJECT (VB2012)\RCRICKET\DEBUG\RCRICKET.EXE
C:\USERS\RAHIT\SKYDRIVE\PROGRAMMING CONTEST'S PROJECT (VB2012)\RCRICKET\DEBUG\RCRICKET.PDB
