^C:\USERS\RAHIT\SKYDRIVE\PROGRAMMING CONTEST'S PROJECT (VB2012)\RCRICKET\RCRICKET\DEBUG\EVENTS.OBJ|C:\USERS\RAHIT\SKYDRIVE\PROGRAMMING CONTEST'S PROJECT (VB2012)\RCRICKET\RCRICKET\DEBUG\GAME.OBJ|C:\USERS\RAHIT\SKYDRIVE\PROGRAMMING CONTEST'S PROJECT (VB2012)\RCRICKET\RCRICKET\DEBUG\GAMEENGINE.OBJ|C:\USERS\RAHIT\SKYDRIVE\PROGRAMMING CONTEST'S PROJECT (VB2012)\RCRICKET\RCRICKET\DEBUG\GRAPHICS.OBJ|C:\USERS\RAHIT\SKYDRIVE\PROGRAMMING CONTEST'S PROJECT (VB2012)\RCRICKET\RCRICKET\DEBUG\MAIN.OBJ|C:\USERS\RAHIT\SKYDRIVE\PROGRAMMING CONTEST'S PROJECT (VB2012)\RCRICKET\RCRICKET\DEBUG\SCREEN.OBJ|C:\USERS\RAHIT\SKYDRIVE\PROGRAMMING CONTEST'S PROJECT (VB2012)\RCRICKET\RCRICKET\DEBUG\TEAM.OBJ
C:\USERS\RAHIT\SKYDRIVE\PROGRAMMING CONTEST'S PROJECT (VB2012)\RCRICKET\RCRICKET\SDL-1.2.15\LIB\X86\SDL.LIB
C:\USERS\RAHIT\SKYDRIVE\PROGRAMMING CONTEST'S PROJECT (VB2012)\RCRICKET\RCRICKET\SDL-1.2.15\LIB\X86\SDLMAIN.LIB
C:\USERS\RAHIT\SKYDRIVE\PROGRAMMING CONTEST'S PROJECT (VB2012)\RCRICKET\RCRICKET\SDL-1.2.15\LIB\X86\SDL_IMAGE.LIB
C:\USERS\RAHIT\SKYDRIVE\PROGRAMMING CONTEST'S PROJECT (VB2012)\RCRICKET\RCRICKET\SDL-1.2.15\LIB\X86\SDL_TTF.LIB
C:\PROGRAM FILES (X86)\WINDOWS KITS\8.0\LIB\WIN8\UM\X86\KERNEL32.LIB
C:\PROGRAM FILES (X86)\WINDOWS KITS\8.0\LIB\WIN8\UM\X86\USER32.LIB
C:\PROGRAM FILES (X86)\WINDOWS KITS\8.0\LIB\WIN8\UM\X86\GDI32.LIB
C:\PROGRAM FILES (X86)\WINDOWS KITS\8.0\LIB\WIN8\UM\X86\WINSPOOL.LIB
C:\PROGRAM FILES (X86)\WINDOWS KITS\8.0\LIB\WIN8\UM\X86\COMDLG32.LIB
C:\PROGRAM FILES (X86)\WINDOWS KITS\8.0\LIB\WIN8\UM\X86\ADVAPI32.LIB
C:\PROGRAM FILES (X86)\WINDOWS KITS\8.0\LIB\WIN8\UM\X86\SHELL32.LIB
C:\PROGRAM FILES (X86)\WINDOWS KITS\8.0\LIB\WIN8\UM\X86\OLE32.LIB
C:\PROGRAM FILES (X86)\WINDOWS KITS\8.0\LIB\WIN8\UM\X86\OLEAUT32.LIB
C:\PROGRAM FILES (X86)\WINDOWS KITS\8.0\LIB\WIN8\UM\X86\UUID.LIB
C:\PROGRAM FILES (X86)\WINDOWS KITS\8.0\LIB\WIN8\UM\X86\ODBC32.LIB
C:\PROGRAM FILES (X86)\WINDOWS KITS\8.0\LIB\WIN8\UM\X86\ODBCCP32.LIB
C:\USERS\RAHIT\SKYDRIVE\PROGRAMMING CONTEST'S PROJECT (VB2012)\RCRICKET\RCRICKET\DEBUG\EVENTS.OBJ
C:\USERS\RAHIT\SKYDRIVE\PROGRAMMING CONTEST'S PROJECT (VB2012)\RCRICKET\RCRICKET\DEBUG\GAME.OBJ
C:\USERS\RAHIT\SKYDRIVE\PROGRAMMING CONTEST'S PROJECT (VB2012)\RCRICKET\RCRICKET\DEBUG\GAMEENGINE.OBJ
C:\USERS\RAHIT\SKYDRIVE\PROGRAMMING CONTEST'S PROJECT (VB2012)\RCRICKET\RCRICKET\DEBUG\GRAPHICS.OBJ
C:\USERS\RAHIT\SKYDRIVE\PROGRAMMING CONTEST'S PROJECT (VB2012)\RCRICKET\RCRICKET\DEBUG\MAIN.OBJ
C:\USERS\RAHIT\SKYDRIVE\PROGRAMMING CONTEST'S PROJECT (VB2012)\RCRICKET\RCRICKET\DEBUG\SCREEN.OBJ
C:\USERS\RAHIT\SKYDRIVE\PROGRAMMING CONTEST'S PROJECT (VB2012)\RCRICKET\RCRICKET\DEBUG\TEAM.OBJ
C:\WINDOWS\SYSTEM32\TZRES.DLL
C:\WINDOWS\GLOBALIZATION\SORTING\SORTDEFAULT.NLS
C:\PROGRAM FILES (X86)\MICROSOFT VISUAL STUDIO 11.0\VC\LIB\MSVCPRTD.LIB
C:\PROGRAM FILES (X86)\MICROSOFT VISUAL STUDIO 11.0\VC\LIB\MSVCRTD.LIB
C:\PROGRAM FILES (X86)\MICROSOFT VISUAL STUDIO 11.0\VC\LIB\OLDNAMES.LIB
C:\PROGRAM FILES (X86)\MICROSOFT VISUAL STUDIO 11.0\VC\LIB\MSVCRT.LIB
